{
  "_note1": "KEEP THIS FILE! Check it into a version control system (VCS) like git.",
  "_note2": "ObjectBox manages crucial IDs for your object model. See docs for details.",
  "_note3": "If you have VCS merge conflicts, you must resolve them according to ObjectBox docs.",
  "entities": [
    {
      "id": "1:4350872524856356824",
      "lastPropertyId": "8:8441555707426475939",
      "name": "currentuser",
      "properties": [
        {
          "id": "1:1066089760499709118",
          "name": "id"
        },
        {
          "id": "2:4600676175118723886",
          "name": "uuid"
        },
        {
          "id": "3:4776564673536320880",
          "name": "name"
        },
        {
          "id": "4:2173090625703307270",
          "name": "surname"
        },
        {
          "id": "5:1570047634272243036",
          "name": "patronymic"
        },
        {
          "id": "6:1724157883522005766",
          "name": "login"
        },
        {
          "id": "7:7618172498293454769",
          "name": "mail"
        },
        {
          "id": "8:8441555707426475939",
          "name": "phootoavatar"
        }
      ]
    }
  ],
  "lastEntityId": "1:4350872524856356824",
  "lastIndexId": "0:0",
  "lastSequenceId": "0:0",
  "modelVersion": 2,
  "retiredEntityUids": [],
  "retiredIndexUids": [],
  "retiredPropertyUids": [],
  "version": 1
}